{
  "random_state": 0,
  "argumentations": ["horizon_flip"],
  "filter": 100,
  "model": {
    "name": "unet_101to6_resnet_kernel"
  },
  "model_detail": {
    "size": 101,
    "start_neurons": 16,
    "activation": "relu",
    "dropout_ratio": 0.5,
    "loss": "lovasz_hinge",
    "optimizer": {
      "name": "adam",
      "param": {
      }
    }
  },
  "training":{
    "patience": 10,
    "epochs": 200,
    "batch_size": 32
  },
  "TTAs": ["horizon_flip"]
}
