{
  "random_state": 0,
  "argumentations": ["horizon_flip"],
  "filter": 100,
  "channel": 3,
  "model": {
    "name": "unet_pretrain"
  },
  "model_detail": {
    "size": 198,
    "loss": "binary_crossentropy",
    "optimizer": {
      "name": "sgd",
      "param": {
        "lr": 0.01,
        "momentum": 0
      }
    }
  },
  "training":{
    "patience": 10,
    "epochs": 1,
    "batch_size": 32
  },
  "TTAs": ["horizon_flip"]
}
